Time,Upstream bore pressure,Actuator open pressure
1726071077,649.47,19.62
1726071077,597.85,19.62
1726071078,581.28,19.62
1726071078,567.53,19.62
1726071079,524.82,19.63
1726071079,513.68,19.63
1726071080,503.76,19.63
1726071080,460.91,19.63
1726071081,451.96,19.63
1726071081,644.21,19.63
1726071082,957.07,19.63
1726071082,958.76,19.63
1726071083,959.03,19.63
1726071083,959.01,19.63
1726071084,959.23,19.63
1726071084,959.59,19.64
1726071085,959.9,19.64
1726071085,959.97,19.64
1726071086,959.99,19.64
1726071086,960.22,19.64
1726071087,960.32,19.64
1726071087,960.53,19.64
1726071088,1029.23,19.64
1726071088,1082.19,19.64
1726071089,1141.01,19.65
1726071089,1162.73,19.64
1726071090,1171.35,19.64
1726071090,1208.39,19.64
1726071091,1212.8,19.64
1726071091,1249.0,19.64
1726071092,1279.97,19.64
1726071092,1301.63,19.64
1726071093,1311.71,19.65
1726071093,1334.06,19.65
1726071094,1375.46,19.65
1726071094,1380.03,19.65
1726071095,1415.08,19.65
1726071095,1450.74,19.65
1726071096,1460.05,19.65
1726071096,1536.13,19.65
1726071097,1530.69,19.66
1726071097,1569.45,19.66
1726071098,1609.39,19.66
1726071098,1641.72,19.65
1726071099,1694.42,19.65
1726071099,1690.22,19.65
1726071100,1731.92,19.65
1726071100,1764.68,19.65
1726071101,1797.42,19.65
1726071101,1831.38,19.65
1726071102,1878.27,19.66
1726071102,1885.25,19.65
1726071103,1939.11,19.65
1726071103,1989.99,19.64
1726071104,2005.64,19.64
1726071104,2036.13,19.64
1726071105,2070.11,19.65
1726071105,2118.21,19.65
1726071106,2126.02,19.65
1726071106,2183.63,19.65
1726071107,2191.53,19.66
1726071107,2247.7,19.65
1726071108,2273.23,19.66
1726071108,2309.97,19.66
1726071109,2342.91,19.66
1726071110,2378.86,19.66
1726071110,2410.51,19.65
1726071111,2443.98,19.65
1726071111,2478.94,19.65
1726071112,2514.44,19.65
1726071112,2546.82,19.65
1726071113,2581.5,19.65
1726071113,2617.01,19.65
1726071114,2652.81,19.65
1726071114,2703.64,19.65
1726071115,2754.84,19.65
1726071115,2753.14,19.65
1726071116,2892.11,19.65
1726071116,2960.84,19.65
1726071117,3059.59,19.66
1726071117,3059.97,19.65
1726071118,3102.57,19.65
1726071118,3141.54,19.65
1726071119,3166.27,19.65
1726071119,3214.75,19.65
1726071120,3223.28,19.64
1726071120,3274.95,19.65
1726071121,3337.5,19.64
1726071121,3346.9,19.65
1726071122,3409.98,19.65
1726071122,3408.14,19.65
1726071123,3452.93,19.65
1726071123,3497.61,19.65
1726071124,3526.08,19.65
1726071124,3579.31,19.65
1726071125,3587.36,19.65
1726071125,3633.7,19.65
1726071126,3710.46,19.65
1726071126,3722.79,19.65
1726071127,3758.05,19.65
1726071127,3808.96,19.65
1726071128,3819.86,19.65
1726071128,3866.87,19.65
1726071129,3866.87,19.65
1726071129,3907.48,19.65
1726071130,3976.09,19.65
1726071130,3986.93,19.65
1726071131,4052.3,19.65
1726071131,4071.57,19.65
1726071132,4137.17,19.66
1726071132,4149.5,19.65
1726071133,4219.17,19.65
1726071133,4234.25,19.66
1726071134,4266.14,19.66
1726071134,4320.89,19.65
1726071135,4342.74,19.64
1726071135,4409.38,19.64
1726071136,4419.56,19.64
1726071136,4492.52,19.64
1726071137,4502.15,19.64
1726071137,4568.58,19.64
1726071138,4576.84,19.65
1726071138,4642.92,19.64
1726071139,4665.26,19.64
1726071139,4692.93,19.64
1726071140,4729.53,19.64
1726071140,4767.5,19.64
1726071141,4837.53,19.64
1726071141,4854.7,19.63
1726071142,4928.49,19.63
1726071142,4923.24,19.64
1726071143,4971.97,19.64
1726071143,5022.48,19.64
1726071144,5043.58,19.64
1726071144,5109.76,19.64
1726071145,5106.5,19.64
1726071145,5155.62,19.64
1726071146,5213.73,19.64
1726071147,5230.53,19.65
1726071147,5303.87,19.65
1726071148,5301.24,19.64
1726071148,5383.88,19.64
1726071149,5396.77,19.64
1726071149,5428.27,19.64
1726071150,5484.64,19.65
1726071150,5505.03,19.65
1726071151,5572.54,19.65
1726071151,5591.65,19.65
1726071152,5602.44,19.66
1726071152,5686.49,19.66
1726071153,5697.73,19.66
1726071153,5729.0,19.67
1726071154,5777.84,19.67
1726071154,5805.14,19.67
1726071155,5854.31,19.67
1726071155,5874.65,19.68
1726071156,5938.37,19.68
1726071156,5960.82,19.78
1726071157,5981.0,19.77
1726071157,6048.89,19.73
1726071158,6059.92,19.71
1726071158,6088.38,19.7
1726071159,6142.63,19.69
1726071159,6153.94,19.69
1726071160,6235.33,19.69
1726071160,6246.84,19.69
1726071161,6273.93,19.69
1726071161,6339.04,19.69
1726071162,6350.53,19.68
1726071162,6383.45,19.67
1726071163,6417.48,19.68
1726071163,6457.97,19.68
1726071164,6490.28,19.67
1726071164,6538.53,19.67
1726071165,6568.94,19.68
1726071165,6632.46,19.68
1726071166,6643.87,19.67
1726071166,6672.45,19.68
1726071167,6707.13,19.68
1726071167,6743.7,19.67
1726071168,6774.35,19.67
1726071168,6839.44,19.67
1726071169,6848.68,19.67
1726071169,6878.31,19.67
1726071170,6931.49,19.67
1726071170,6941.67,19.67
1726071171,7023.07,19.67
1726071171,7033.29,19.67
1726071172,7051.51,19.67
1726071172,7030.36,19.68
1726071173,7075.6,19.68
1726071173,7132.03,19.68
1726071174,7228.01,19.67
1726071174,7248.59,19.68
1726071175,7270.34,19.68
1726071175,7338.97,19.68
1726071176,7358.39,19.69
1726071176,7391.99,19.69
1726071177,7453.67,19.69
1726071177,7450.26,19.7
1726071178,7492.56,19.7
1726071178,7559.57,19.7
1726071179,7574.73,19.7
1726071179,7592.11,19.7
1726071180,7626.85,19.7
1726071180,7684.01,19.69
1726071181,7700.96,19.69
1726071181,7770.52,19.69
1726071182,7788.23,19.69
1726071182,7788.23,19.69
1726071183,7803.34,19.7
1726071183,7836.56,19.7
1726071184,7892.0,19.7
1726071184,7909.19,19.7
1726071185,7969.21,19.71
1726071185,7989.31,19.71
1726071186,8003.18,19.71
1726071186,8034.86,19.71
1726071187,8104.21,19.71
1726071187,8114.53,19.71
1726071188,8138.02,19.7
1726071188,8199.39,19.7
1726071189,8227.86,19.7
1726071190,8194.33,19.7
1726071190,8248.26,19.69
1726071191,8313.06,19.69
1726071191,8333.35,19.69
1726071192,8366.67,19.69
1726071192,8435.94,19.69
1726071193,8443.39,19.68
1726071193,8465.88,19.68
1726071194,8498.92,19.69
1726071194,8562.66,19.69
1726071195,8574.88,19.69
1726071195,8584.85,19.68
1726071196,8630.99,19.68
1726071196,8671.63,19.68
1726071197,8694.48,19.68
1726071197,8732.71,19.68
1726071198,8793.11,19.68
1726071198,8805.7,19.68
1726071199,8831.33,19.68
1726071199,8864.41,19.68
1726071200,8929.43,19.68
1726071200,8944.05,19.68
1726071201,8965.18,19.68
1726071201,8999.93,19.68
1726071202,8953.96,19.67
1726071202,9013.32,19.67
1726071203,9102.22,19.67
1726071203,9141.06,19.67
1726071204,9166.48,19.67
1726071204,9196.05,19.67
1726071205,9227.74,19.68
1726071205,9298.22,19.68
1726071206,9314.34,19.68
1726071206,9337.07,19.69
1726071207,9405.05,19.69
1726071207,9423.79,19.69
1726071208,9441.75,19.69
1726071208,9467.25,19.69
1726071209,9495.8,19.69
1726071209,9565.13,19.69
1726071210,9578.54,19.69
1726071210,9591.6,19.7
1726071211,9619.96,19.7
1726071211,9676.48,19.7
1726071212,9680.0,19.7
1726071212,9715.95,19.69
1726071213,9745.92,19.69
1726071213,9808.07,19.69
1726071214,9713.76,19.7
1726071214,9749.46,19.69
1726071215,9790.28,19.69
1726071215,9869.19,19.69
1726071216,9904.91,19.69
1726071216,9934.77,19.69
1726071217,9965.16,19.69
1726071217,10004.55,19.76
1726071218,10078.0,19.72
1726071218,10103.69,19.68
1726071219,10130.68,19.7
1726071219,10163.49,19.69
1726071220,10231.52,19.68
1726071220,10233.13,19.68
1726071221,10277.16,19.67
1726071221,10300.43,19.67
1726071222,10329.73,19.67
1726071222,10360.17,19.68
1726071223,10429.5,19.68
1726071223,10436.45,19.68
1726071224,10459.05,19.68
1726071224,10459.05,19.68
1726071225,10487.62,19.68
1726071225,10552.11,19.68
1726071226,10571.46,19.69
1726071226,10589.54,19.68
1726071227,10609.75,19.68
1726071227,10637.93,19.68
1726071228,10684.92,19.68
1726071228,10736.58,19.69
1726071229,10745.31,19.69
1726071229,10770.63,19.69
1726071230,10798.64,19.69
1726071230,10829.62,19.69
1726071231,10896.66,19.68
1726071231,10919.05,19.68
1726071232,10918.9,19.68
1726071232,10959.24,19.68
1726071233,10987.97,19.68
1726071233,11019.28,19.68
1726071234,11087.53,19.68
1726071234,11097.29,19.68
1726071235,11121.19,19.68
1726071235,11151.59,19.68
1726071236,11176.83,19.68
1726071236,11241.27,19.67
1726071237,11272.28,19.67
1726071237,11288.32,19.68
1726071238,11308.2,19.68
1726071238,11331.32,19.68
1726071239,11356.8,19.68
1726071239,11389.25,19.68
1726071240,11454.91,19.68
1726071240,11475.9,19.69
1726071241,11498.46,19.69
1726071241,11518.62,19.69
1726071242,11548.78,19.69
1726071242,11574.95,19.69
1726071243,11607.24,19.69
1726071243,11673.55,19.69
1726071244,11665.91,19.69
1726071245,11714.04,19.69
1726071245,11737.26,19.69
1726071246,11760.78,19.69
1726071246,11788.48,19.69
1726071247,11852.15,19.69
1726071247,11881.01,19.69
1726071248,11899.32,19.7
1726071248,11924.61,19.7
1726071249,11942.83,19.7
1726071249,11966.06,19.69
1726071250,11993.32,19.69
1726071250,12019.57,19.69
1726071251,12052.54,19.69
1726071251,12105.14,19.69
1726071252,12122.83,19.69
1726071252,12138.72,19.69
1726071253,12155.34,19.69
1726071253,12161.41,19.69
1726071254,12185.49,19.69
1726071254,12196.22,19.69
1726071255,12171.96,19.69
1726071255,12207.41,19.7
1726071256,12250.05,19.69
1726071256,12286.63,19.69
1726071257,12326.75,19.69
1726071257,12362.52,19.69
1726071258,12402.34,19.69
1726071258,12472.79,19.69
1726071259,12514.19,19.68
1726071259,12538.76,19.69
1726071260,12566.46,19.69
1726071260,12594.22,19.68
1726071261,12613.93,19.68
1726071261,12641.61,19.68
1726071262,12667.4,19.68
1726071262,12702.64,19.68
1726071263,12732.34,19.68
1726071263,12802.56,19.67
1726071264,12833.0,19.68
1726071264,12854.79,19.68
1726071265,12882.03,19.68
1726071265,12909.61,19.68
1726071266,12931.81,19.68
1726071266,12957.27,19.68
1726071267,12983.85,19.68
1726071267,13008.15,19.68
1726071268,13040.09,19.69
1726071268,13072.3,19.69
1726071269,13100.74,19.69
1726071269,13162.89,19.73
1726071270,13197.54,19.76
1726071270,13221.3,19.74
1726071271,13242.38,19.7
1726071271,13242.38,19.7
1726071272,13271.3,19.69
1726071272,13297.55,19.72
1726071273,13321.59,19.69
1726071273,13340.96,19.71
1726071274,13367.72,19.69
1726071274,13393.88,19.68
1726071275,13423.79,19.67
1726071275,13452.19,19.67
1726071276,13483.95,19.67
1726071276,13510.91,19.67
1726071277,13538.61,19.67
1726071277,13570.08,19.67
1726071278,13627.49,19.66
1726071278,13660.83,19.66
1726071279,13684.87,19.65
1726071279,13710.19,19.66
1726071280,13740.49,19.65
1726071280,13762.01,19.65
1726071281,13787.98,19.65
1726071281,13814.95,19.64
1726071282,13841.07,19.64
1726071282,13866.6,19.63
1726071283,13893.0,19.63
1726071283,13921.83,19.63
1726071284,13945.42,19.63
1726071284,13974.08,19.63
1726071285,13998.38,19.63
1726071285,14026.7,19.63
1726071286,14055.14,19.63
1726071286,14084.54,19.63
1726071287,14114.48,19.63
1726071287,14140.41,19.63
1726071288,14170.25,19.63
1726071288,14195.02,19.63
1726071289,14224.85,19.62
1726071289,14252.48,19.63
1726071290,14319.63,19.63
1726071290,14347.09,19.63
1726071291,14372.94,19.62
1726071291,14399.14,19.63
1726071292,14426.4,19.63
1726071292,14452.1,19.63
1726071293,14476.79,19.63
1726071293,14508.23,19.63
1726071294,14529.33,19.63
1726071294,14558.76,19.63
1726071295,14580.61,19.63
1726071295,14605.96,19.63
1726071296,14632.22,19.63
1726071296,14660.8,19.63
1726071297,14693.74,19.63
1726071297,14726.04,19.63
1726071298,14751.03,19.63
1726071299,14777.01,19.63
1726071299,14804.09,19.63
1726071300,14831.5,19.64
1726071300,14855.17,19.63
1726071301,14880.07,19.63
1726071301,14874.57,19.63
1726071302,14943.03,19.63
1726071302,14972.71,19.63
1726071303,15000.51,19.64
1726071303,15027.67,19.64
1726071304,15052.21,19.64
1726071304,15074.19,19.64
1726071305,15074.31,19.65
1726071305,15099.74,19.65
1726071306,15129.06,19.65
1726071306,15153.56,19.65
1726071307,15182.19,19.65
1726071307,15205.94,19.65
1726071308,15241.24,19.65
1726071308,15266.67,19.64
1726071309,15293.87,19.64
1726071309,15315.68,19.65
1726071310,15309.93,19.65
1726071310,15177.87,19.65
1726071311,15079.24,19.65
1726071311,15061.93,19.65
1726071312,15054.58,19.65
1726071312,15131.94,19.6
1726071313,15191.49,19.62
1726071313,15226.53,19.63
1726071314,15266.12,19.63
1726071314,15301.84,19.66
1726071315,15336.27,19.67
1726071315,15269.67,19.66
1726071316,15248.7,19.67
1726071316,15237.05,19.67
1726071317,15230.79,19.67
1726071317,15227.22,19.67
1726071318,15224.21,19.67
1726071318,15222.14,19.67
1726071319,15220.05,19.67
1726071319,15218.83,19.67
1726071320,15217.74,19.67
1726071320,15216.62,19.67
1726071321,15215.62,19.67
1726071321,15214.8,19.67
1726071322,15213.93,19.67
1726071322,15213.26,19.67
1726071323,15212.54,19.67
1726071323,15211.99,19.67
1726071330,15203.99,19.68
1726071330,15203.99,19.68
1726071331,15203.47,19.68
1726071331,15202.89,19.68
1726071332,15202.16,19.68
1726071332,15201.61,19.68
1726071333,15200.92,19.7
1726071333,15200.34,19.66
1726071334,15199.64,19.66
1726071334,15198.84,19.68
1726071335,15198.19,19.68
1726071335,15197.65,19.68
1726071336,15196.95,19.69
1726071336,15196.18,19.69
1726071337,15195.49,19.68
1726071337,15194.83,19.69
1726071338,15194.15,19.69
1726071338,15193.52,19.68
1726071339,15192.77,19.69
1726071339,15192.16,19.69
1726071340,15191.38,19.69
1726071340,15190.78,19.69
1726071341,15190.11,19.69
1726071342,15189.48,19.68
1726071342,15188.89,19.69
1726071343,15188.2,19.69
1726071343,15187.66,19.7
1726071344,15186.98,19.7
1726071344,15186.31,19.7
1726071345,15185.69,19.7
1726071345,15185.14,19.71
1726071346,15184.49,19.71
1726071346,15183.65,19.71
1726071347,15183.08,19.71
1726071347,15182.46,19.72
1726071348,15181.92,19.72
1726071348,15181.27,19.71
1726071349,15180.67,19.72
1726071349,15180.05,19.72
1726071350,15179.43,19.71
1726071350,15178.75,19.71
1726071351,15178.09,19.71
1726071351,15177.47,19.71
1726071352,15176.67,19.72
1726071352,15176.09,19.72
1726071353,15175.54,19.72
1726071353,15174.96,19.72
1726071354,15174.33,19.71
1726071354,15173.73,19.72
1726071355,15173.19,19.71
1726071355,15172.48,19.72
1726071356,15171.89,19.71
1726071356,15171.24,19.71
1726071357,15170.56,19.71
1726071357,15169.93,19.71
1726071358,15169.44,19.71
1726071358,15168.78,19.72
1726071359,15168.14,19.72
1726071359,15167.52,19.72
1726071360,15166.96,19.72
1726071360,15166.3,19.72
1726071361,15165.77,19.72
1726071361,15165.15,19.72
1726071362,15164.5,19.72
1726071362,15163.83,19.72
1726071363,15163.32,19.72
1726071363,15162.75,19.72
1726071364,15162.17,19.72
1726071364,15161.68,19.72
1726071365,15161.0,19.72
1726071365,15160.47,19.72
1726071366,15159.84,19.72
1726071366,15159.3,19.72
1726071367,15159.3,19.72
1726071367,15158.73,19.72
1726071368,15158.16,19.71
1726071368,15157.54,19.71
1726071369,15157.06,19.71
1726071369,15156.44,19.71
1726071370,15156.0,19.71
1726071370,15155.4,19.7
1726071371,15154.92,19.7
1726071371,15154.26,19.7
1726071372,15153.8,19.7
1726071372,15153.26,19.69
1726071373,15152.62,19.69
1726071373,15152.13,19.7
1726071374,15151.58,19.7
1726071374,15151.04,19.7
1726071375,15150.4,19.7
1726071375,15149.76,19.7
1726071376,15149.34,19.7
1726071376,15148.85,19.7
1726071377,15148.27,19.7
1726071377,15147.73,19.69
1726071378,15147.26,19.69
1726071378,15146.79,19.69
1726071379,15146.19,19.7
1726071379,15145.55,19.7
1726071380,15145.03,19.7
1726071380,15144.43,19.69
1726071381,15144.03,19.69
1726071381,15143.48,19.69
1726071382,15143.07,19.69
1726071382,15142.51,19.7
1726071383,15142.01,19.7
1726071383,15141.51,19.7
1726071384,15140.93,19.7
1726071384,15140.51,19.7
1726071385,15139.91,19.7
1726071385,15139.52,19.7
1726071386,15139.05,19.7
1726071386,15138.58,19.7
1726071387,15138.17,19.69
1726071387,15137.6,19.7
1726071388,15137.13,19.7
1726071388,15136.58,19.7
1726071389,15136.16,19.7
1726071389,15135.62,19.69
1726071390,15135.01,19.69
1726071390,15134.35,19.69
1726071391,15133.81,19.69
1726071391,15133.36,19.69
1726071392,15132.82,19.69
1726071392,15132.43,19.69
1726071393,15131.86,19.69
1726071393,15131.42,19.69
1726071394,15130.94,19.69
1726071394,15130.36,19.68
1726071395,15129.96,19.68
1726071395,15129.45,19.68
1726071396,15128.92,19.68
1726071396,15128.49,19.69
1726071397,15128.11,19.69
1726071397,15127.62,19.69
1726071398,15127.25,19.68
1726071399,15126.75,19.68
1726071399,15126.18,19.68
1726071400,15125.75,19.68
1726071400,15125.33,19.68
1726071401,15124.92,19.68
1726071401,15124.52,19.68
1726071402,15124.08,19.68
1726071402,15123.55,19.69
1726071403,15123.05,19.69
1726071403,15122.67,19.69
1726071404,15122.15,19.69
1726071404,15121.66,19.69
1726071405,15121.24,19.69
1726071405,15120.74,19.68
1726071406,15120.25,19.68
1726071406,15119.87,19.68
1726071412,15115.25,19.66
1726071412,15114.83,19.65
1726071413,15114.45,19.65
1726071413,15113.86,19.65
1726071414,15113.35,19.65
1726071414,15112.9,19.65
1726071415,15112.42,19.65
1726071415,15112.07,19.65
1726071416,15111.61,19.65
1726071416,15111.11,19.64
1726071417,15110.57,19.64
1726071417,15110.21,19.65
1726071418,15109.8,19.65
1726071418,15109.31,19.65
1726071419,15108.85,19.65
1726071419,15108.49,19.66
1726071420,15108.01,19.66
1726071420,15107.6,19.66
1726071421,15107.22,19.66
1726071421,15106.73,19.66
1726071422,15106.27,19.65
1726071422,15105.8,19.65
1726071423,15105.34,19.65
1726071423,15104.92,19.65
1726071424,15104.57,19.65
1726071424,15104.07,19.65
1726071425,15103.62,19.65
1726071425,15103.13,19.66
1726071426,15102.74,19.65
1726071426,15102.29,19.65
1726071427,15101.92,19.65
1726071427,15101.49,19.65
1726071428,15101.16,19.65
1726071428,15100.7,19.66
1726071429,15100.23,19.66
1726071429,15099.87,19.66
1726071430,15099.36,19.65
1726071430,15098.92,19.65
1726071431,15098.59,19.65
1726071431,15098.15,19.65
1726071432,15097.75,19.65
1726071432,15097.32,19.65
1726071433,15096.97,19.65
1726071433,15096.56,19.65
1726071434,15096.24,19.64
1726071434,15095.87,1311.93
1726071435,15095.42,1138.25
1726071435,15094.47,1143.28
1726071436,15093.69,1149.89
1726071436,15093.06,1177.88
1726071437,15092.28,1208.69
1726071437,15091.52,1244.0
1726071438,15091.0,1276.8
1726071438,15090.35,1308.92
1726071439,15089.81,1340.38
1726071439,15089.29,1375.82
1726071440,15088.8,1399.21
1726071440,15088.34,1398.79
1726071441,15087.61,1397.2
1726071441,15087.21,1395.54
1726071442,15086.72,1394.01
1726071442,15086.34,1392.64
1726071443,15085.81,1391.39
1726071443,15085.33,1390.24
1726071444,15084.85,1389.16
1726071444,15084.37,1388.15
1726071445,15083.96,1387.19
1726071445,15083.53,1386.11
1726071446,15083.07,1385.25
1726071446,15082.54,1384.41
1726071447,15082.23,1383.6
1726071447,15081.7,1382.83
1726071448,15081.2,1382.07
1726071448,15080.83,1381.34
1726071449,15080.53,1380.62
1726071449,15080.15,1379.92
1726071450,15079.86,1379.21
1726071450,15079.45,1378.48
1726071451,15079.16,1377.59
1726071451,15078.63,1376.83
1726071452,15078.33,1376.07
1726071453,15077.92,1375.29
1726071453,15077.68,1374.51
1726071454,15077.42,1373.72
1726071454,15077.02,1372.94
1726071455,15076.73,1372.16
1726071455,15076.26,1371.39
1726071456,15076.0,1370.62
1726071456,15075.66,1369.86
1726071457,15075.34,1369.09
1726071457,15075.34,1369.09
1726071458,15074.88,1368.19
1726071458,15074.55,1367.44
1726071459,15074.23,1366.7
1726071459,15074.01,1365.96
1726071460,15073.79,1365.24
1726071460,15073.45,1364.52
1726071461,15073.16,1363.8
1726071461,15072.84,1363.09
1726071462,15072.61,1362.39
1726071462,15072.28,1361.69
1726071463,15071.97,1361.0
1726071463,15071.68,1360.18
1726071464,15071.23,1359.51
1726071464,15070.87,1358.84
1726071465,15070.55,1358.19
1726071465,15070.22,1357.54
1726071466,15069.93,1356.89
1726071466,15069.55,1356.25
1726071467,15069.16,1355.63
1726071467,15068.95,1355.01
1726071468,15068.75,1354.4
1726071468,15068.43,1353.79
1726071469,15068.21,1353.18
1726071469,15067.91,1352.47
1726071470,15067.56,1351.88
1726071470,15067.39,1351.3
1726071471,15067.11,1350.72
1726071471,15066.84,1350.15
1726071472,15066.46,1349.59
1726071472,15066.28,1349.04
1726071473,15066.09,1348.49
1726071473,15065.9,1347.95
1726071474,15065.7,1347.41
1726071474,15065.33,1346.91
1726071475,15065.06,1346.33
1726071475,15064.73,1345.86
1726071476,15064.49,1345.39
1726071476,15064.31,1344.92
1726071477,15063.92,1344.46
1726071477,15063.63,1343.99
1726071478,15063.42,1343.54
1726071478,15063.15,1343.08
1726071479,15062.89,1342.63
1726071479,15062.53,1342.18
1726071480,15062.17,1341.73
1726071480,15061.9,1341.3
1726071481,15061.62,1340.86
1726071481,15061.44,1340.34
1726071482,15061.2,1339.91
1726071482,15060.87,1339.48
1726071483,15060.72,1339.06
1726071483,15060.5,1338.65
1726071484,15060.22,893.64
1726071484,15059.91,954.49
1726071485,15059.71,1471.41
1726071485,15059.39,1486.33
1726071486,15059.06,1488.57
1726071486,9321.23,1252.78
1726071487,4295.67,612.89
1726071487,1618.93,618.43
1726071488,407.34,620.61
1726071488,72.64,622.84
1726071489,39.51,625.54
1726071489,26.09,628.31
1726071490,20.22,652.18
1726071490,16.69,662.27
1726071491,14.63,668.37
1726071491,13.11,672.79
1726071492,11.87,676.36
1726071492,10.71,679.31
1726071493,9.87,1806.55
1726071493,9.21,1482.54
1726071494,8.53,1456.62
1726071494,8.08,1446.73
1726071495,7.68,1440.74
1726071495,7.3,1436.61
1726071496,7.02,1433.45
1726071496,6.74,1430.94
1726071497,6.49,1428.81
1726071497,6.23,1426.93
1726071498,6.12,1425.23
1726071498,5.94,1423.68
1726071499,5.94,1423.68
1726071499,5.81,1421.97
1726071500,5.72,1420.64
1726071500,5.58,1419.38
1726071501,5.42,1418.18
1726071501,5.26,1417.04
1726071502,5.19,1415.94
1726071502,5.13,1414.88
1726071503,4.99,1413.85
1726071503,4.94,1412.85
1726071504,4.8,1392.83
1726071505,4.73,1392.04
1726071505,4.66,1391.2
1726071506,4.53,1390.53
1726071506,4.42,1389.87
1726071507,4.37,1389.24
1726071507,4.3,1388.63
1726071508,4.23,1388.01
1726071508,4.13,1387.39
1726071509,4.01,1386.78
1726071509,3.96,1386.17
1726071510,3.92,1385.58
1726071510,3.85,1384.99
1726071584,21.21,19.57
1726071585,21.59,19.6
1726071585,21.96,19.63
1726071586,22.33,19.65
1726071586,22.73,19.68
1726071587,23.03,19.69
1726071587,23.37,19.71
1726071588,23.7,19.72
1726071588,24.08,19.74
1726071589,24.42,19.76
1726071589,24.67,19.78
1726071590,669.62,19.79
1726071590,950.99,19.8
1726071591,905.46,19.82
1726071591,900.94,19.83
1726071592,847.06,19.84
1726071592,902.11,19.85
1726071593,907.95,19.86
1726071593,911.91,19.86
1726071594,800.88,19.87
1726071594,923.66,19.88
1726071595,930.0,19.88
1726071595,932.06,19.88
1726071596,933.24,19.89
1726071596,933.99,19.89
1726071597,934.66,19.89
1726071597,817.54,19.9
1726071598,804.37,19.9
1726071598,842.16,19.9
1726071599,870.84,19.91
1726071599,870.72,19.91
1726071600,870.47,19.91
1726071600,872.39,19.91
1726071601,871.65,19.91
1726071601,872.8,19.91
1726071602,872.71,19.91
1726071602,873.05,19.91
1726071603,873.67,19.9
1726071603,873.81,19.9
1726071604,875.04,19.91
1726071604,875.59,19.91
1726071605,891.38,19.91
1726071605,895.59,19.91
1726071606,895.64,19.92
1726071606,899.42,19.92
1726071607,902.83,19.92
1726071607,926.85,19.92
1726071608,938.55,19.92
1726071608,958.54,19.91
1726071609,970.0,19.91
1726071609,993.5,19.91
1726071610,1029.21,19.91
1726071611,1038.95,19.91
1726071611,1074.23,19.91
1726071612,1113.2,19.91
1726071612,1121.42,19.91
1726071613,1163.9,19.91
1726071613,1195.12,19.91
1726071614,1221.84,19.91
1726071614,1276.1,19.91
1726071615,1286.3,19.91
1726071615,1331.75,19.91
1726071616,1337.81,19.91
1726071616,1377.54,19.91
1726071617,1418.57,19.91
1726071617,1453.64,19.92
1726071618,1484.6,19.91
1726071618,1518.37,19.91
1726071619,1566.41,19.91
1726071619,1609.9,19.91
1726071620,1615.91,19.91
1726071620,1684.27,19.91
1726071621,1683.58,19.91
1726071621,1729.89,19.91
1726071622,1770.3,19.9
1726071622,1809.55,19.9
1726071623,1840.44,19.9
1726071623,1874.04,19.9
1726071624,1936.13,19.89
1726071624,1933.33,19.89
1726071625,2004.63,19.89
1726071625,2012.68,19.9
1726071626,2072.95,19.9
1726071626,2089.01,19.9
1726071627,2128.01,19.9
1726071627,2162.11,19.9
1726071628,2194.66,19.9
1726071628,2254.32,19.89
1726071629,2254.95,19.89
1726071629,2328.61,19.89
1726071630,2324.94,19.89
1726071630,2370.53,19.89
1726071631,2404.61,19.88
1726071631,2465.24,19.87
1726071632,2467.26,19.87
1726071632,2528.77,19.87
1726071633,2538.71,19.87
1726071633,2601.2,19.87
1726071634,2608.17,19.86
1726071634,2664.62,19.86
1726071635,2671.26,19.86
1726071635,2736.22,19.86
1726071636,2741.0,19.86
1726071636,2806.86,19.86
1726071637,2857.13,19.85
1726071637,2854.3,19.85
1726071638,2925.03,19.85
1726071638,2925.03,19.85
1726071639,2924.5,19.85
1726071639,2967.8,19.84
1726071640,3004.54,19.84
1726071640,3034.86,19.84
1726071641,3077.65,19.85
1726071641,3106.05,19.84
1726071642,3146.01,19.84
1726071642,3208.89,19.84
1726071643,3216.63,19.84
1726071643,3280.3,19.84
1726071644,3276.49,19.84
1726071644,3345.68,19.84
1726071645,3363.99,19.83
1726071645,3391.64,19.83
1726071646,3439.76,19.83
1726071646,3447.72,19.83
1726071647,3508.55,19.82
1726071647,3567.73,19.82
1726071648,3563.08,19.82
1726071648,3645.63,19.82
1726071649,3755.03,19.82
1726071649,3878.84,19.82
1726071650,3970.94,19.82
1726071650,4001.4,19.82
1726071651,4070.22,19.82
1726071651,4075.77,19.81
1726071652,4131.38,19.81
1726071653,4143.27,19.81
1726071653,4177.56,19.81
1726071654,4211.59,19.81
1726071654,4272.18,19.81
1726071655,4281.65,19.81
1726071655,4311.34,19.81
1726071656,4366.36,19.81
1726071656,4382.2,19.8
1726071657,4453.52,19.79
1726071657,4464.12,19.79
1726071658,4499.83,19.79
1726071658,4543.25,19.79
1726071659,4603.97,19.79
1726071659,4599.93,19.79
1726071660,4638.59,19.79
1726071660,4688.8,19.79
1726071661,4705.88,19.79
1726071661,4771.42,19.79
1726071662,4765.31,19.79
1726071662,4809.46,19.79
1726071663,4856.99,19.8
1726071663,4878.67,19.8
1726071664,4946.85,19.8
1726071664,4942.88,19.8
1726071665,4992.76,19.8
1726071665,5028.53,19.8
1726071666,5088.41,19.8
1726071666,5109.53,19.8
1726071667,5115.77,19.8
1726071667,5194.43,19.8
1726071668,5203.56,19.8
1726071668,5238.32,19.8
1726071669,5292.0,19.8
1726071669,5303.94,19.8
1726071670,5371.67,19.8
1726071670,5382.07,19.8
1726071671,5445.31,19.79
1726071671,5439.49,19.79
1726071672,5484.01,19.79
1726071672,5519.09,19.79
1726071673,5556.09,19.79
1726071673,5618.03,19.79
1726071674,5643.03,19.79
1726071674,5657.66,19.78
1726071675,5730.23,19.79
1726071675,5738.89,19.78
1726071676,5769.2,19.79
1726071676,5819.3,19.79
1726071677,5845.44,19.78
1726071677,5881.38,19.78
1726071678,5918.9,19.78
1726071678,5952.6,19.78
1726071679,6006.17,19.79
1726071679,6023.53,19.79
1726071680,6086.61,19.8
1726071680,6118.27,19.8
1726071681,6132.98,19.8
1726071681,6198.51,19.8
1726071682,6212.29,19.8
1726071682,6270.28,19.8
1726071683,6248.45,19.8
1726071683,6321.53,19.8
1726071684,6446.39,19.8
1726071684,6478.23,19.8
1726071685,6499.51,19.81
1726071685,6567.62,19.81
1726071686,6586.62,19.81
1726071686,6604.01,19.81
1726071687,6604.01,19.81
1726071687,6667.53,19.81
1726071688,6677.16,19.81
1726071688,6727.28,19.81
1726071689,6758.4,19.81
1726071689,6773.56,19.8
1726071690,6807.11,19.81
1726071690,6861.32,19.81
1726071691,6873.86,19.81
1726071691,6906.54,19.81
1726071692,6940.46,19.81
1726071692,6869.19,19.81
1726071693,6998.28,19.81
1726071693,7061.12,19.81
1726071694,7091.83,19.81
1726071694,7157.84,19.81
1726071695,7145.44,19.81
1726071695,7123.45,19.81
1726071696,7240.62,19.81
1726071696,7258.11,19.8
1726071697,7281.02,19.81
1726071697,7340.99,19.81
1726071698,7363.79,19.81
1726071698,7383.53,19.81
1726071699,7416.28,19.8
1726071699,7386.24,19.8
1726071700,7501.32,19.81
1726071700,7587.31,19.8
1726071701,7629.53,19.8
1726071701,7671.05,19.8
1726071702,7746.09,19.8
1726071702,7769.97,19.81
1726071703,7783.31,19.81
1726071703,7810.88,19.81
1726071704,7874.29,19.81
1726071704,7887.25,19.81
1726071705,7955.66,19.81
1726071705,7976.25,19.81
1726071706,7994.63,19.81
1726071706,8024.21,19.81
1726071707,8093.23,19.8
1726071707,8106.94,19.8
1726071708,8127.65,19.8
1726071708,8152.34,19.8
1726071709,8176.22,19.8
1726071710,8139.63,19.8
1726071710,8253.66,19.8
1726071711,8278.44,19.8
1726071711,8302.85,19.8
1726071712,8332.3,19.8
1726071712,8402.03,19.8
1726071713,8419.52,19.8
1726071713,8434.51,19.8
1726071714,8470.54,19.8
1726071714,8534.42,19.8
1726071715,8548.17,19.8
1726071715,8568.42,19.8
1726071716,8634.01,19.8
1726071716,8646.46,19.8
1726071717,8662.44,19.79
1726071717,8695.6,19.79
1726071718,8762.19,19.79
1726071718,8780.67,19.78
1726071719,8797.32,19.78
1726071719,8825.78,19.78
1726071720,8895.55,19.78
1726071720,8909.07,19.78
1726071721,8923.46,19.78
1726071721,8990.16,19.78
1726071722,9010.49,19.79
1726071722,9028.36,19.79
1726071723,9053.5,19.79
1726071723,9086.7,19.79
1726071724,9148.78,19.79
1726071724,9161.68,19.79
1726071725,9183.07,19.79
1726071725,9183.07,19.79
1726071726,9210.49,19.79
1726071726,9277.96,19.79
1726071727,9298.63,19.79
1726071727,9314.51,19.79
1726071728,9348.08,19.8
1726071728,9411.64,19.79
1726071729,9427.17,19.79
1726071729,9448.61,19.79
1726071730,9473.81,19.79
1726071730,9535.13,19.79
1726071731,9533.18,19.79
1726071731,9574.39,19.79
1726071732,9597.19,19.78
1726071732,9668.41,19.78
1726071733,9692.94,19.78
1726071733,9691.26,19.78
1726071734,9730.39,19.78
1726071734,9760.04,19.78
1726071735,9828.83,19.77
1726071735,9851.72,19.77
1726071736,9851.44,19.77
1726071736,9892.98,19.77
1726071737,9920.2,19.77
1726071737,9987.29,19.77
1726071738,10006.57,19.77
1726071738,10027.46,19.77
1726071739,10059.8,19.77
1726071739,10124.08,19.77
1726071740,10156.13,19.78
1726071740,10170.63,19.78
1726071741,10191.14,19.78
1726071741,10219.38,19.78
1726071742,10264.86,19.77
1726071742,10315.42,19.77
1726071743,10334.36,19.77
1726071743,10352.61,19.77
1726071744,10384.45,19.78
1726071744,10450.58,19.78
1726071745,10481.77,19.77
1726071745,10502.65,19.77
1726071746,10525.29,19.78
1726071746,10546.16,19.78
1726071747,10577.65,19.78
1726071747,10645.54,19.78
1726071748,10680.86,19.77
1726071748,10697.77,19.77
1726071749,10711.74,19.78
1726071749,10741.6,19.78
1726071750,10805.43,19.78
1726071750,10840.82,19.77
1726071751,10857.84,19.77
1726071751,10880.54,19.77
1726071752,10900.47,19.76
1726071752,10932.89,19.76
1726071753,10964.42,19.76
1726071753,11036.78,19.76
1726071754,11057.4,19.77
1726071754,11072.02,19.77
1726071755,11097.88,19.77
1726071755,11125.14,19.77
1726071756,11189.53,19.77
1726071756,11231.14,19.77
1726071757,11249.19,19.77
1726071757,11268.93,19.77
1726071758,11292.8,19.77
1726071758,11316.36,19.77
1726071759,11345.7,19.77
1726071759,11376.26,19.77
1726071760,11438.38,19.77
1726071760,11456.28,19.77
1726071761,11456.28,19.77
1726071761,11480.48,19.77
1726071762,11504.74,19.77
1726071762,11449.49,19.76
1726071763,11521.5,19.76
1726071763,11554.4,19.77
1726071764,11602.81,19.77
1726071764,11637.21,19.77
1726071765,11674.05,19.76
1726071765,11711.51,19.76
1726071766,11786.87,19.76
1726071766,11829.23,19.76
1726071767,11853.39,19.76
1726071767,11879.61,19.76
1726071768,11903.9,19.76
1726071768,11930.57,19.76
1726071769,11955.18,19.76
1726071769,11978.88,19.76
1726071770,12008.25,19.76
1726071770,12041.01,19.77
1726071771,12105.39,19.77
1726071771,12124.25,19.77
1726071772,12146.48,19.76
1726071772,12171.28,19.76
1726071773,12200.64,19.76
1726071773,12223.48,19.76
1726071774,12253.07,19.77
1726071774,12284.91,19.76
1726071775,12346.62,19.77
1726071776,12378.82,19.77
1726071776,12397.43,19.77
1726071777,12429.38,19.77
1726071777,12438.3,19.76
1726071778,12466.76,19.76
1726071778,12496.51,19.77
1726071779,12524.26,19.76
1726071779,12554.68,19.77
1726071780,12614.7,19.77
1726071780,12655.09,19.77
1726071781,12684.87,19.77
1726071781,12700.23,19.77
1726071782,12728.3,19.77
1726071782,12754.94,19.77
1726071783,12769.43,19.77
1726071783,12796.69,19.77
1726071784,12811.09,19.77
1726071784,12853.72,19.77
1726071785,12875.14,19.77
1726071785,12901.86,19.77
1726071786,12966.65,19.77
1726071786,12996.56,19.77
1726071787,13029.91,19.77
1726071787,13048.81,19.77
1726071788,13071.49,19.77
1726071788,13088.48,19.77
1726071789,13112.62,19.77
1726071789,13142.67,19.77
1726071790,13166.29,19.78
1726071790,13197.17,19.77
1726071791,13222.09,19.77
1726071791,13251.85,19.77
1726071792,13281.78,19.77
1726071792,13308.53,19.77
1726071793,13338.34,19.77
1726071793,13393.26,19.78
1726071794,13426.3,19.77
1726071794,13453.65,19.77
1726071795,13480.1,19.77
1726071795,13504.44,19.78
1726071796,13529.78,19.77
1726071796,13555.23,19.77
1726071797,13580.16,19.77
1726071797,13604.1,19.78
1726071798,13631.3,19.77
1726071798,13657.25,19.77
1726071799,13662.63,19.78
1726071799,13711.79,19.78
1726071800,13740.68,19.78
1726071800,13770.26,19.78
1726071801,13797.36,19.77
1726071801,13827.46,19.77
1726071802,13853.02,19.77
1726071802,13881.29,19.77
1726071803,13910.47,19.77
1726071803,13938.77,19.77
1726071804,13993.02,19.78
1726071804,13990.56,19.78
1726071805,14046.97,19.78
1726071805,14073.26,19.78
1726071806,14099.21,19.78
1726071806,14126.6,19.78
1726071807,14153.46,19.78
1726071807,14179.08,19.78
1726071808,14207.01,19.78
1726071808,14235.79,19.78
1726071809,14265.67,19.78
1726071809,14288.05,19.78
1726071810,14318.31,19.78
1726071810,14331.68,19.78
1726071811,14361.16,19.78
1726071811,14382.82,19.78
1726071812,14409.85,19.78
1726071812,14434.78,19.78
1726071813,14459.13,19.79
1726071813,14482.49,19.79
1726071814,14506.68,19.79
1726071814,14530.73,19.79
1726071815,14546.88,19.79
1726071815,14546.88,19.79
1726071816,14570.05,19.79
1726071816,14560.98,19.79
1726071817,14603.42,19.79
1726071817,14628.83,19.79
1726071818,14655.4,19.79
1726071818,14684.37,19.79
1726071819,14713.65,19.79
1726071819,14740.26,19.79
1726071820,14769.12,19.79
1726071820,14800.97,19.79
1726071821,14832.66,19.79
1726071821,14862.74,19.79
1726071822,14886.53,19.79
1726071822,14919.13,19.79
1726071823,14950.9,19.8
1726071824,14981.73,19.79
1726071824,15015.96,19.79
1726071825,15050.2,19.79
1726071825,15078.36,19.78
1726071826,15110.07,19.78
1726071826,15145.85,19.78
1726071827,15174.53,19.82
1726071827,15201.64,19.8
1726071828,15223.29,19.81
1726071828,15265.9,19.79
1726071829,15290.72,19.79
1726071829,15314.34,19.77
1726071830,15338.39,19.77
1726071830,15332.51,19.78
1726071831,15359.77,19.78
1726071831,15342.41,19.78
1726071832,15259.16,19.78
1726071832,15108.39,19.77
1726071833,15036.11,19.78
1726071833,15014.59,19.78
1726071834,15086.44,19.78
1726071834,15138.15,19.79
1726071835,15185.54,19.78
1726071835,15221.33,19.78
1726071836,15254.28,19.78
1726071836,15296.62,19.78
1726071837,15320.86,19.78
1726071837,15345.47,19.78
1726071838,15338.13,19.79
1726071838,15364.11,19.79
1726071839,15338.92,19.79
1726071839,15316.06,19.79
1726071840,15304.36,19.79
1726071840,15298.46,19.79
1726071841,15295.05,19.78
1726071841,15292.7,19.78
1726071842,15291.18,19.77
1726071842,15289.57,19.77
1726071843,15288.57,19.78
1726071843,15287.77,19.78
1726071844,15286.87,19.78
1726071844,15285.87,19.78
1726071845,15285.05,19.78
1726071845,15284.41,19.77
1726071846,15283.78,19.77
1726071846,15283.27,19.77
1726071847,15282.7,19.77
1726071875,15340.4,19.75
1726071875,15339.9,19.75
1726071876,15339.4,19.75
1726071876,15338.98,19.75
1726071877,15338.6,19.74
1726071877,15338.16,19.74
1726071883,15331.93,19.74
1726071884,15331.38,19.74
1726071884,15330.72,19.74
1726071885,15330.29,19.74
1726071885,15329.83,19.74
1726071886,15329.32,19.74
1726071886,15328.75,19.74
1726071887,15328.32,19.74
1726071887,15327.83,19.74
1726071888,15327.4,19.74
1726071888,15326.89,19.74
1726071889,15326.28,19.73
1726071889,15325.73,19.73
1726071890,15325.32,19.73
1726071890,15324.76,19.73
1726071891,15324.31,19.73
1726071891,15323.69,19.73
1726071892,15323.15,19.73
1726071892,15322.74,19.73
1726071893,15322.19,19.73
1726071893,15321.7,19.72
1726071894,15321.22,19.72
1726071894,15320.71,19.72
1726071895,15320.15,19.72
1726071895,15319.75,19.72
1726071896,15319.2,19.72
1726071896,15318.75,19.71
1726071897,15318.2,19.72
1726071897,15317.72,19.72
1726071898,15317.18,19.68
1726071898,15316.73,19.69
1726071899,15316.3,19.68
1726071899,15315.83,19.68
1726071900,15315.29,19.69
1726071900,15314.76,19.71
1726071901,15314.22,19.69
1726071901,15313.73,19.7
1726071902,15313.23,19.75
1726071902,15312.85,19.74
1726071903,15312.3,19.73
1726071903,15311.84,19.71
1726071904,15311.45,19.7
1726071904,15310.96,19.7
1726071905,15310.38,19.7
1726071905,15310.38,19.7
1726071906,15309.8,19.69
1726071906,15309.36,19.7
1726071907,15308.94,19.7
1726071907,15308.44,19.71
1726071908,15308.05,19.71
1726071908,15307.64,19.71
1726071909,15307.14,19.71
1726071909,15306.73,19.71
1726071910,15306.34,19.7
1726071910,15305.88,19.71
1726071911,15305.29,19.71
1726071911,15304.91,19.7
1726071912,15304.4,19.7
1726071912,15303.95,19.7
1726071913,15303.51,19.7
1726071913,15303.08,19.7
1726071914,15302.63,19.7
1726071914,15302.2,19.7
1726071915,15301.69,19.7
1726071915,15301.25,19.7
1726071916,15300.84,19.7
1726071916,15300.36,19.7
1726071917,15299.9,19.7
1726071917,15299.51,19.7
1726071918,15299.06,19.7
1726071918,15298.64,19.7
1726071919,15298.14,19.71
1726071919,15297.7,19.71
1726071920,15297.36,19.7
1726071920,15296.95,19.71
1726071921,15296.45,19.71
1726071921,15295.91,19.71
1726071922,15295.5,19.72
1726071922,15295.06,19.71
1726071923,15294.61,19.71
1726071923,15294.14,19.71
1726071924,15293.75,19.71
1726071924,15293.43,19.71
1726071925,15292.96,19.72
1726071925,15292.63,19.72
1726071926,15292.26,19.72
1726071926,15291.72,19.72
1726071927,15291.38,19.73
1726071927,15290.92,19.73
1726071928,15290.53,19.73
1726071928,15290.21,19.73
1726071929,15289.74,19.73
1726071929,15289.39,19.73
1726071930,15288.95,19.73
1726071930,15288.62,19.74
1726071931,15288.14,19.74
1726071931,15287.69,19.74
1726071932,15287.35,19.74
1726071932,15286.98,19.74
1726071933,15286.45,19.75
1726071933,15286.03,19.74
1726071934,15285.53,19.75
1726071934,15285.16,19.74
1726071935,15284.7,19.75
1726071936,15284.37,19.75
1726071936,15283.84,19.75
1726071937,15283.51,19.75
1726071937,15283.11,19.75
1726071938,15282.78,19.75
1726071938,15282.19,19.74
1726071939,15281.82,19.75
1726071939,15281.82,19.75
1726071940,15281.31,19.74
1726071940,15281.01,19.75
1726071941,15280.7,19.75
1726071941,15280.29,19.75
1726071942,15279.93,19.75
1726071942,15279.57,19.75
1726071943,15279.2,19.74
1726071943,15278.8,19.74
1726071944,15278.39,19.75
1726071944,15277.96,19.75
1726071945,15277.55,19.74
1726071945,15277.09,19.74
1726071946,15276.72,19.75
1726071946,15276.28,19.75
1726071947,15275.98,19.75
1726071947,15275.56,19.75
1726071948,15275.18,19.75
1726071948,15274.87,19.75
1726071949,15274.55,19.75
1726071949,15274.11,19.75
1726071950,15273.55,19.75
1726071950,15273.16,19.75
1726071951,15272.76,19.74
1726071951,15272.43,19.74
1726071952,15272.05,19.75
1726071952,15271.76,19.75
1726071953,15271.41,19.75
1726071953,15270.92,691.29
1726071954,15270.5,1237.81
1726071954,15269.77,1284.31
1726071955,15269.06,1346.44
1726071955,15268.26,1413.07
1726071956,15267.64,1470.45
1726071956,15266.99,1510.18
1726071957,15266.51,1507.84
1726071957,15265.99,1488.36
1726071958,6986.81,653.5
1726071958,3266.47,646.53
1726071959,1072.61,647.36
1726071959,132.94,647.85
1726071960,12.67,648.83
1726071960,3.51,650.25
1726071961,-0.13,651.95
1726071961,-1.49,653.89
1726071962,-2.15,655.91
1726071962,-2.27,657.97
1726071963,-2.59,679.12
1726071963,-2.95,680.8
1726071964,-3.12,1728.16
1726071964,-3.37,1437.1
1726071965,-3.38,1430.05
1726071965,-3.46,1428.4
1726071966,-3.42,1427.02
1726071966,-3.26,1425.81
1726071967,-3.3,1424.62
1726071967,-3.19,1423.5
1726071968,-3.02,1422.42
1726071968,-2.93,1421.39
1726071969,-2.78,1420.2
1726071969,-2.68,1419.24
1726071970,-2.56,1418.31
1726071970,-2.4,1417.4
1726071971,-2.29,1416.52
1726071971,-2.16,1415.65
1726071972,-2.05,1414.81
1726071972,-1.95,1413.98
1726071973,-1.93,1413.16
1726071973,-1.83,1412.37
1726071974,-1.74,1411.6
1726071974,-1.59,1410.69
1726071975,-1.53,1409.9
1726071975,-1.44,1409.1
1726071976,-1.35,1408.28
1726071976,-1.22,1407.45
1726071977,-1.13,1406.62
1726071977,-1.1,1405.76
1726071978,-1.0,1404.9
1726071978,-0.96,1404.04
1726071979,-0.9,1403.17
1726071979,-0.83,1402.3
1726071980,-0.78,1401.26
1726071980,-0.75,1400.38
1726071981,-0.68,1399.51
1726071981,-0.62,1398.64
1726071982,-0.56,1397.76
1726071982,-0.43,1396.89
1726071983,-0.38,538.47
1726071983,-0.34,704.04
1726071984,-0.03,705.73
1726071985,0.25,706.55
1726071985,0.37,707.25
1726071986,0.56,708.04
1726071986,0.64,708.67
1726071987,0.77,709.18
1726071987,0.82,709.31
1726071988,0.82,709.31
1726071988,0.9,709.19
1726071989,0.91,708.87
1726071989,0.9,708.37
1726071990,0.9,707.74
1726071990,0.88,707.06
1726071991,0.87,10.99
1726071991,0.89,11.23
1726071992,0.85,12.85
1726071992,0.8,14.03
1726071993,0.85,15.01
1726071993,0.85,15.78
1726071994,0.87,16.4
1726071994,0.91,16.86
1726071995,0.96,17.23
1726071995,0.97,17.53
1726071996,1.04,17.77
1726071996,1.05,17.98
1726071997,1.09,18.18
1726071997,1.07,18.33
1726071998,1.13,18.45
1726071998,1.11,18.55
1726071999,1.17,18.64
1726071999,1.24,18.72
1726072000,1.24,18.8
1726072000,1.3,18.86
1726072001,1.29,18.91
1726072001,1.29,18.98
1726072002,1.36,19.03
1726072002,1.36,19.07
1726072003,1.42,19.13
1726072038,2.77,19.8
1726072039,2.77,19.8
1726072039,2.82,19.79
1726072040,2.8,19.79
1726072040,2.82,19.8
1726072041,2.83,19.8
1726072041,2.89,19.79
1726072042,2.85,19.79
1726072042,2.85,19.78
1726072092,3.73,19.69
1726072092,3.73,19.69
1726072093,3.77,19.69
1726072093,3.76,19.69
1726072094,3.82,19.68
1726072094,3.79,19.68
1726072095,3.77,19.69
1726072095,3.83,19.69
1726072096,3.89,19.7
1726072096,3.86,19.7
1726072097,3.89,19.7
1726072097,3.85,19.7
1726072098,3.81,19.7
1726072098,3.82,19.7
1726072099,3.88,19.7
1726072099,3.9,19.7
1726072100,3.93,19.71
1726072100,3.96,19.71
1726072101,3.92,19.71
1726072101,4.08,19.71
1726072102,43.37,19.71
1726072102,348.49,19.71
1726072103,950.91,19.71
1726072103,863.91,19.71
1726072104,764.87,19.71
1726072104,837.43,19.72
1726072105,860.52,19.71
1726072105,866.58,19.72
1726072106,730.15,19.7
1726072106,867.56,19.7
1726072107,878.95,19.71
1726072107,882.96,19.72
1726072108,846.99,19.71
1726072108,881.72,19.71
1726072109,895.39,19.72
1726072109,899.02,19.73
1726072110,904.04,19.74
1726072110,906.5,19.74
1726072111,939.29,19.74
1726072111,950.45,19.74
1726072112,952.24,19.75
1726072112,954.13,19.74
1726072113,955.55,19.74
1726072113,956.64,19.74
1726072114,1009.06,19.74
1726072115,1098.3,19.74
1726072115,1129.54,19.74
1726072116,1175.0,19.74
1726072116,1197.33,19.74
1726072117,1225.06,19.74
1726072117,1256.77,19.74
1726072118,1285.33,19.74
1726072118,1342.09,19.74
1726072119,1350.64,19.73
1726072119,1402.62,19.73
1726072120,1421.18,19.73
1726072120,1451.19,19.73
1726072121,1519.79,19.73
1726072121,1528.7,19.73
1726072122,1581.84,19.73
1726072122,1598.11,19.73
1726072123,1633.01,19.73
1726072123,1668.48,19.73
1726072124,1699.37,19.73
1726072124,1737.09,19.73
1726072125,1785.75,19.73
1726072125,1794.97,19.73
1726072126,1848.41,19.73
1726072126,1884.27,19.73
1726072127,1920.55,19.73
1726072127,1952.28,19.73
1726072128,1988.73,19.73
1726072128,2020.71,19.73
1726072129,2059.35,19.73
1726072129,2092.84,19.73
1726072130,2126.36,19.73
1726072130,2176.89,19.73
1726072131,2186.49,19.72
1726072131,2239.46,19.72
1726072132,2299.56,19.72
1726072132,2310.47,19.72
1726072133,2372.25,19.71
1726072133,2382.44,19.72
1726072134,2441.29,19.72
1726072134,2450.73,19.72
1726072135,2515.68,19.72
1726072135,2521.12,19.72
1726072136,2586.55,19.72
1726072136,2581.31,19.72
1726072137,2645.65,19.72
1726072137,2657.0,19.72
1726072138,2718.51,19.72
1726072138,2728.32,19.72
1726072139,2876.3,19.72
1726072139,2988.11,19.72
1726072140,3068.56,19.72
1726072140,3089.97,19.72
1726072141,3120.87,19.72
1726072141,3149.22,19.73
1726072142,3193.51,19.73
1726072142,3203.3,19.73
1726072143,3253.51,19.73
1726072143,3259.19,19.73
1726072144,3296.34,19.73
1726072144,3331.46,19.73
1726072145,3364.59,19.72
1726072145,3397.75,19.72
1726072146,3454.91,19.72
1726072146,3449.61,19.72
1726072147,3490.25,19.72
1726072147,3490.25,19.73
1726072148,3528.32,19.73
1726072148,3560.49,19.72
1726072149,3596.59,19.73
1726072149,3657.91,19.72
1726072150,3653.42,19.72
1726072150,3726.03,19.72
1726072151,3742.67,19.72
1726072151,3773.76,19.72
1726072152,3831.55,19.72
1726072153,3856.19,19.72
1726072153,3913.98,19.72
1726072154,3942.93,19.72
1726072154,3993.8,19.72
1726072155,4001.3,19.72
1726072155,4079.39,19.72
1726072156,4098.49,19.71
1726072156,4166.81,19.71
1726072157,4162.49,19.71
1726072157,4210.22,19.7
1726072158,4265.82,19.7
1726072158,4290.69,19.7
1726072159,4342.73,19.7
1726072159,4376.52,19.71
1726072160,4435.55,19.71
1726072160,4459.84,19.71
1726072161,4533.68,19.71
1726072161,4545.96,19.71
1726072162,4580.82,19.71
1726072162,4630.29,19.71
1726072163,4652.73,19.71
1726072163,4726.18,19.71
1726072164,4742.14,19.72
1726072164,4783.75,19.71
1726072165,4821.17,19.72
1726072165,4884.72,19.71
1726072166,4902.29,19.71
1726072166,4930.62,19.71
1726072167,4969.76,19.71
1726072167,5009.23,19.72
1726072168,5044.69,19.71
1726072168,5080.37,19.71
1726072169,5102.61,19.72
1726072169,5176.14,19.72
1726072170,5195.42,19.72
1726072170,5266.79,19.72
1726072171,5279.27,19.72
1726072171,5312.76,19.72
1726072172,5367.43,19.72
1726072172,5382.77,19.71
1726072173,5452.01,19.71
1726072173,5464.24,19.71
1726072174,5493.36,19.72
1726072174,5560.92,19.72
1726072175,5574.91,19.72
1726072175,5609.51,19.72
1726072176,5644.95,19.72
1726072176,5683.71,19.71
1726072177,5743.45,19.71
1726072177,5762.58,19.71
1726072178,5826.93,19.71
1726072178,5844.9,19.71
1726072179,5863.66,19.71
1726072179,5894.52,19.71
1726072180,5851.61,19.71
1726072180,5964.75,19.71
1726072181,6039.79,19.71
1726072181,6149.8,19.71
1726072182,6250.17,19.71
1726072182,6323.44,19.71
1726072183,6390.34,19.7
1726072183,6412.22,19.7
1726072184,6361.25,19.71
1726072184,6453.41,19.7
1726072185,6490.75,19.7
1726072185,6506.41,19.7
1726072186,6574.94,19.71
1726072187,6586.65,19.71
1726072187,6609.38,19.71
1726072188,6674.52,19.71
1726072188,6669.11,19.71
1726072189,6711.71,19.71
1726072189,6773.78,19.71
1726072190,6781.76,19.71
1726072190,6807.73,19.71
1726072191,6865.78,19.71
1726072191,6871.64,19.71
1726072192,6925.95,19.71
1726072192,6949.18,19.71
1726072193,6960.82,19.71
1726072193,6991.44,19.71
1726072194,7047.24,19.71
1726072194,7064.92,19.71
1726072195,7094.42,19.7
1726072195,7153.17,19.7
1726072196,7149.67,19.7
1726072196,7191.75,19.7
1726072197,7258.97,19.71
1726072197,7261.33,19.71
1726072198,7294.6,19.71
1726072198,7339.93,19.7
1726072199,7357.38,19.71
1726072199,7383.62,19.71
1726072200,7448.6,19.71
1726072200,7440.9,19.71
1726072201,7474.85,19.71
1726072201,7537.17,19.7
1726072202,7557.64,19.7
1726072202,7576.42,19.7
1726072203,7642.48,19.7
1726072203,7654.52,19.71
1726072204,7658.24,19.71
1726072204,7640.19,19.71
1726072205,7694.79,19.71
1726072205,7749.78,19.71
1726072206,7857.85,19.7
1726072206,7929.9,19.7
1726072207,7980.68,19.7
1726072207,8032.34,19.7
1726072208,8115.57,19.7
1726072208,8103.95,19.7
1726072209,8089.71,19.71
1726072209,8197.55,19.71
1726072210,8220.87,19.71
1726072210,8243.92,19.71
1726072211,8273.09,19.71
1726072211,8343.48,19.71
1726072212,8356.18,19.71
1726072212,8375.89,19.71
1726072213,8407.84,19.71
1726072213,8407.84,19.71
1726072214,8461.55,19.71
1726072214,8478.88,19.71
1726072215,8508.96,19.71
1726072215,8576.54,19.71
1726072216,8595.0,19.71
1726072216,8607.85,19.71
1726072217,8635.48,19.7
1726072217,8705.22,19.7
1726072218,8723.92,19.7
1726072218,8731.72,19.71
1726072219,8802.45,19.71
1726072219,8820.74,19.71
1726072220,8838.14,19.71
1726072220,8870.57,19.7
1726072221,8933.13,19.7
1726072221,8956.15,19.7
1726072222,8975.18,19.7
1726072222,8985.14,19.7
1726072223,9028.73,19.7
1726072223,9092.84,19.7
1726072224,9102.23,19.69
1726072224,9119.68,19.69
1726072225,9191.05,19.69
1726072225,9210.82,19.68
1726072226,9222.5,19.68
1726072226,9249.91,19.68
1726072227,9301.9,19.68
1726072227,9346.14,19.68
1726072228,9358.81,19.67
1726072228,9379.16,19.68
1726072229,9403.28,19.68
1726072229,9462.3,19.68
1726072230,9460.77,19.67
1726072230,9500.79,19.67
1726072231,9526.54,19.67
1726072231,9592.07,19.67
1726072232,9613.78,19.67
1726072232,9626.31,19.67
1726072233,9650.46,19.67
1726072233,9680.31,19.67
1726072234,9745.53,19.67
1726072234,9761.63,19.67
1726072235,9775.22,19.67
1726072235,9796.23,19.67
1726072236,9867.54,19.67
1726072236,9885.02,19.67
1726072237,9903.13,19.67
1726072237,9922.62,19.67
1726072238,9954.7,19.68
1726072238,10019.03,19.68
1726072239,10039.5,19.67
1726072239,10061.74,19.67
1726072240,10087.65,19.67
1726072240,10117.44,19.68
1726072241,10148.14,19.68
1726072241,10212.58,19.68
1726072242,10221.28,19.68
1726072242,10243.98,19.68
1726072243,10277.7,19.69
1726072243,10344.26,19.68
1726072244,10362.05,19.68
1726072244,10385.31,19.68
1726072245,10409.36,19.68
1726072246,10437.24,19.68
1726072246,10466.76,19.68
1726072247,10542.61,19.68
1726072247,10552.72,19.68
1726072248,10575.1,19.68
1726072248,10575.1,19.69
1726072249,10604.77,19.69
1726072249,10637.56,19.68
1726072250,10693.5,19.68
1726072250,10711.64,19.68
1726072251,10727.98,19.68
1726072251,10753.9,19.69
1726072252,10777.2,19.69
1726072252,10812.81,19.69
1726072253,10880.09,19.69
1726072253,10897.45,19.7
1726072254,10920.18,19.7
1726072254,10945.61,19.7
1726072255,10978.92,19.7
1726072255,11011.92,19.7
1726072256,11076.76,19.7
1726072256,11095.38,19.7
1726072257,11119.69,19.69
1726072257,11140.23,19.69
1726072258,11166.58,19.7
1726072258,11199.56,19.7
1726072259,11270.5,19.7
1726072259,11289.61,19.69
1726072260,11308.5,19.69
1726072260,11331.54,19.7
1726072261,11359.71,19.7
1726072261,11390.01,19.69
1726072262,11418.24,19.69
1726072262,11486.67,19.69
1726072263,11511.78,19.69
1726072263,11539.14,19.69
1726072264,11561.59,19.69
1726072264,11587.96,19.69
1726072265,11619.74,19.69
1726072265,11682.53,19.69
1726072266,11718.21,19.7
1726072266,11733.43,19.69
1726072267,11759.44,19.7
1726072267,11784.65,19.7
1726072268,11807.43,19.7
1726072268,11840.73,19.7
1726072269,11866.5,19.7
1726072269,11942.58,19.7
1726072270,11961.68,19.7
1726072270,11983.6,19.7
1726072271,12009.3,19.7
1726072271,12034.36,19.7
1726072272,12064.38,19.7
1726072272,12089.84,19.7
1726072273,12122.25,19.71
1726072273,12153.01,19.71
1726072274,12216.89,19.7
1726072274,12251.55,19.7
1726072275,12262.73,19.7
1726072275,12293.64,19.7
1726072276,12316.17,19.7
1726072276,12349.34,19.7
1726072277,12373.73,19.7
1726072277,12403.69,19.71
1726072278,12429.62,19.71
1726072278,12491.37,19.71
1726072279,12524.92,19.71
1726072279,12546.55,19.71
1726072280,12563.87,19.7
1726072280,12592.98,19.7
1726072281,12619.92,19.7
1726072281,12645.01,19.69
1726072282,12674.97,19.69
1726072282,12704.13,19.69
1726072283,12736.02,19.69
1726072283,12794.94,19.69
1726072284,12839.93,19.69
1726072284,12872.14,19.69
1726072285,12886.94,19.69
1726072285,12912.07,19.69
1726072286,12934.71,19.7
1726072286,12963.84,19.7
1726072287,12987.0,19.7
1726072287,13019.05,19.7
1726072288,13027.91,19.7
1726072288,12991.3,19.7
1726072289,13027.15,19.7
1726072289,13077.06,19.69
1726072290,13109.27,19.69
1726072290,13149.71,19.7
1726072291,13149.71,19.7
1726072291,13181.83,19.7
1726072292,13218.0,19.7
1726072292,13251.58,19.7
1726072293,13288.96,19.7
1726072293,13315.86,19.7
1726072294,13350.43,19.69
1726072294,13377.52,19.7
1726072295,13410.81,19.69
1726072295,13441.17,19.7
1726072296,13512.39,19.69
1726072297,13541.27,19.7
1726072297,13567.02,19.7
1726072298,13592.87,19.7
1726072298,13618.11,19.7
1726072299,13648.04,19.7
1726072299,13669.47,19.7
1726072300,13698.08,19.69
1726072300,13718.69,19.69
1726072301,13746.51,19.69
1726072301,13770.96,19.68
1726072302,13797.46,19.69
1726072302,13821.66,19.68
1726072303,13841.91,19.68
1726072303,13869.92,19.68
1726072304,13892.67,19.68
1726072304,13913.03,19.68
1726072305,13940.61,19.68
1726072305,13964.7,19.68
1726072306,13984.91,19.68
1726072306,14013.58,19.68
1726072307,14036.68,19.68
1726072307,14059.51,19.68
1726072308,14125.89,19.69
1726072308,14149.17,19.68
1726072309,14177.42,19.68
1726072309,14209.74,19.68
1726072310,14233.8,19.69
1726072310,14264.26,19.78
1726072311,14289.22,19.79
1726072311,14321.62,19.74
1726072312,14346.04,19.75
1726072312,14377.27,19.75
1726072313,14401.19,19.74
1726072313,14425.12,19.74
1726072314,14452.72,19.73
1726072314,14478.74,19.72
1726072315,14508.97,19.73
1726072315,14530.65,19.71
1726072316,14554.85,19.71
1726072316,14583.23,19.71
1726072317,14611.15,19.71
1726072317,14647.0,19.71
1726072318,14672.56,19.7
1726072318,14701.49,19.7
1726072319,14726.16,19.7
1726072319,14755.65,19.7
1726072320,14787.7,19.7
1726072320,14819.11,19.7
1726072321,14848.06,19.7
1726072321,14877.34,19.7
1726072322,14903.25,19.7
1726072322,14930.58,19.7
1726072323,14912.96,19.69
1726072323,14970.34,19.69
1726072324,14977.59,19.69
1726072324,15030.38,19.7
1726072325,15056.8,19.7
1726072325,15084.8,19.7
1726072326,15020.44,19.7
1726072326,14917.39,19.7
1726072327,14831.15,19.71
1726072327,14771.82,19.7
1726072328,14814.57,19.7
1726072328,14895.04,19.7
1726072329,14939.83,19.69
1726072329,14976.9,19.69
1726072330,15006.86,19.69
1726072330,15036.26,19.69
1726072331,15066.03,19.69
1726072331,15087.92,19.69
1726072332,15110.96,19.69
1726072332,15105.65,19.7
1726072333,15132.11,19.69
1726072333,15132.11,19.69
1726072334,15161.44,19.7
1726072334,15188.65,19.69
1726072335,15221.67,19.68
1726072335,15246.17,19.68
1726072336,15237.2,19.68
1726072336,15178.59,19.69
1726072337,15160.39,19.69
1726072337,15150.05,19.69
1726072338,15144.03,19.69
1726072338,15140.99,19.69
1726072339,15139.24,19.7
1726072339,15137.55,19.69
1726072340,15136.12,19.7
1726072340,15135.32,19.69
1726072341,15134.28,19.69
1726072341,15133.71,19.68
1726072342,15132.86,19.69
1726072346,15129.0,19.69
1726072346,15128.66,19.69
1726072347,15128.16,19.69
1726072347,15127.82,19.69
1726072348,15127.36,19.69
1726072348,15126.94,19.68
1726072349,15126.52,19.68
1726072349,15190.67,19.68
1726072350,15222.77,19.68
1726072350,15281.26,19.68
1726072351,15330.01,19.68
1726072351,15368.12,19.68
1726072352,15362.19,19.68
1726072352,15332.23,19.68
1726072353,15284.19,19.68
1726072353,15277.11,19.68
1726072354,15271.91,19.68
1726072354,15269.32,19.68
1726072355,15268.1,19.68
1726072355,15266.72,19.68
1726072356,15265.89,19.69
1726072356,15265.34,19.69
1726072357,15264.61,19.68
1726072358,15264.05,19.68
1726072358,15263.53,19.68
1726072358,15262.88,19.68
1726072359,15262.48,19.69
1726072360,15262.03,19.68
1726072360,15261.66,19.68
1726072361,15261.27,19.68
1726072361,15261.02,19.69
1726072362,15260.78,19.69
1726072362,15260.49,19.68
1726072363,15260.25,19.69
1726072363,15259.8,19.69
1726072364,15259.57,19.68
1726072364,15259.28,19.69
1726072365,15258.92,19.69
1726072365,15258.65,19.69
1726072366,15258.17,19.69
1726072366,15257.76,19.69
1726072367,15257.5,19.69
1726072367,15257.1,19.69
1726072368,15256.8,19.69
1726072368,15256.38,19.69
1726072369,15256.01,19.69
1726072369,15255.51,19.69
1726072370,15255.03,19.69
1726072370,15254.72,19.69
1726072371,15254.43,19.69
1726072371,15254.01,19.69
1726072372,15253.62,19.69
1726072372,15253.29,19.68
1726072373,15252.98,19.68
1726072373,15252.98,19.68
1726072374,15252.54,19.68
1726072374,15252.07,19.68
1726072375,15251.73,19.68
1726072375,15251.28,19.68
1726072376,15250.98,19.68
1726072376,15250.46,19.69
1726072377,15250.17,19.69
1726072377,15249.85,19.68
1726072378,15249.4,19.68
1726072378,15249.07,19.68
1726072379,15248.47,19.68
1726072379,15247.96,19.68
1726072380,15247.69,19.68
1726072380,15247.24,19.68
1726072381,15246.86,19.68
1726072381,15246.54,19.68
1726072382,15246.1,19.68
1726072382,15245.81,19.68
1726072383,15245.48,19.68
1726072383,15245.09,19.68
1726072384,15244.79,19.68
1726072384,15244.41,19.68
1726072385,15244.02,19.68
1726072385,15243.65,19.68
1726072386,15243.21,19.68
1726072386,15242.94,19.68
1726072387,15242.54,19.68
1726072387,15242.07,19.68
1726072388,15241.61,19.69
1726072388,15241.25,19.69
1726072389,15240.81,19.68
1726072389,15240.51,19.68
1726072390,15240.25,19.68
1726072390,15239.82,19.68
1726072391,15239.47,19.68
1726072391,15239.04,19.68
1726072392,15238.7,19.68
1726072392,15238.33,19.68
1726072393,15237.97,19.68
1726072393,15237.54,19.68
1726072394,15237.27,19.68
1726072394,15236.91,19.68
1726072395,15236.54,19.68
1726072395,15236.25,19.69
1726072396,15235.99,19.69
1726072396,15235.6,19.69
1726072397,15235.24,19.69
1726072397,15234.88,19.69
1726072398,15234.41,19.69
1726072398,15234.04,19.7
1726072399,15233.75,19.7
1726072399,15233.49,19.7
1726072400,15233.08,19.7
1726072400,15232.81,19.7
1726072401,15232.45,19.7
1726072401,15232.05,19.71
1726072402,15231.63,19.7
1726072402,15231.39,19.7
1726072403,15230.97,19.7
1726072403,15230.73,19.7
1726072404,15230.35,19.7
1726072404,15230.04,19.7
1726072405,15229.66,19.7
1726072405,15229.42,19.7
1726072406,15229.15,19.7
1726072406,15228.78,19.71
1726072407,15228.35,19.71
1726072407,15228.05,19.71
1726072408,15227.68,19.71
1726072408,15227.37,19.7
1726072409,15227.09,19.7
1726072410,15226.73,19.7
1726072410,15226.44,19.7
1726072411,15226.13,19.7
1726072411,15225.81,19.7
1726072412,15225.56,19.7
1726072412,15225.13,19.69
1726072413,15224.88,19.69
1726072413,15224.6,19.7
1726072414,15224.31,19.69
1726072414,15223.87,19.7
1726072415,15223.59,19.7
1726072415,15223.35,19.69
1726072416,15223.0,19.7
1726072416,15222.76,19.7
1726072417,15222.45,19.7
1726072417,15222.17,19.7
1726072418,15221.79,19.7
1726072418,15221.46,19.7
1726072419,15220.95,19.7
1726072419,15220.68,19.7
1726072420,15220.36,19.7
1726072420,15219.95,19.71
1726072427,15216.33,19.71
1726072428,15216.06,19.7
1726072428,15215.86,19.71
1726072429,15215.5,19.71
1726072429,15215.17,19.7
1726072430,15214.83,19.71
1726072430,15214.65,19.71
1726072431,15214.39,19.71
1726072431,15214.12,19.71
1726072432,15213.83,19.71
1726072432,15213.54,19.71
1726072433,15213.34,19.71
1726072433,15213.1,19.71
1726072434,15212.74,19.71
1726072434,15212.48,19.71
1726072435,15212.12,19.71
1726072435,15211.81,19.71
1726072436,15211.63,19.71
1726072436,15211.38,19.72
1726072437,15211.02,19.71
1726072437,15210.77,19.71
1726072438,15210.46,19.71
1726072438,15210.26,19.72
1726072439,15209.92,19.71
1726072439,15209.69,19.71
1726072440,15209.38,19.72
1726072440,15209.18,19.72
1726072441,15208.8,19.72
1726072441,15208.51,19.72
1726072442,15208.25,19.72
1726072442,15208.07,19.73
1726072443,15207.74,19.73
1726072443,15207.56,19.74
1726072444,15207.25,19.74
1726072444,15206.99,19.73
1726072445,15206.67,19.73
1726072445,15206.48,19.72
1726072446,15206.19,19.78
1726072446,15205.82,19.77
1726072447,15205.66,19.74
1726072447,15205.4,19.76
1726072448,15205.22,19.76
1726072448,15204.91,19.75
1726072449,15204.7,19.75
1726072449,15204.49,19.75
1726072450,15204.3,19.75
1726072450,15204.12,19.75
1726072451,15203.83,19.75
1726072451,15203.59,19.75
1726072452,15203.13,19.75
1726072452,15202.92,19.75
1726072453,15202.71,19.75
1726072453,15202.54,19.75
1726072454,15202.19,19.75
1726072454,15201.93,19.75
1726072455,15201.71,19.75
1726072455,15201.53,19.74
1726072456,15201.22,19.74
1726072456,15200.85,19.74
1726072457,15200.57,19.74
1726072457,15200.35,19.74
1726072458,15200.09,19.74
1726072458,15199.94,19.74
1726072459,15199.6,19.74
1726072460,15199.27,19.74
1726072460,15198.95,19.74
1726072461,15198.78,19.75
1726072461,15198.56,19.75
1726072462,15198.34,19.75
1726072462,15198.08,19.75
1726072463,15197.89,19.75
1726072463,15197.72,19.75
1726072464,15197.47,19.75
1726072464,15197.19,19.74
1726072465,15196.82,19.74
1726072465,15196.47,19.74
1726072466,15196.12,19.74
1726072466,15195.77,19.75
1726072467,15195.6,19.74
1726072467,15195.29,19.75
1726072468,15195.11,19.75
1726072468,15194.93,19.75
1726072469,15194.74,19.74
1726072469,15194.57,19.74
1726072470,15194.22,19.75
1726072470,15193.95,19.74
1726072471,15193.81,19.74
1726072471,15193.54,19.74
1726072472,15193.4,19.74
1726072472,15193.12,19.74
1726072473,15192.97,19.74
1726072473,15192.76,19.74
1726072474,15192.56,19.74
1726072474,15192.29,19.75
1726072475,15192.14,19.75
1726072475,15191.93,19.75
1726072476,15191.67,19.75
1726072476,15191.36,19.76
1726072477,15191.23,19.76
1726072477,15190.96,19.76
1726072478,15190.77,19.75
1726072478,15190.77,19.75
1726072479,15190.57,19.76
1726072479,15190.42,19.75
1726072480,15190.17,19.75
1726072480,15189.92,19.75
1726072481,15189.8,19.75
1726072481,15189.55,19.75
1726072482,15189.36,19.75
1726072482,15189.09,19.75
1726072483,15188.94,19.75
1726072483,15188.73,19.75
1726072484,15188.54,19.74
1726072484,15188.24,19.74
1726072485,15187.9,19.74
1726072485,15187.75,19.74
1726072486,15187.55,19.74
1726072486,15187.31,19.74
1726072487,15187.07,19.74
1726072487,15186.92,19.74
1726072488,15186.64,19.75
1726072488,15186.28,19.75
1726072489,15186.02,19.75
1726072489,15185.78,19.75
1726072490,15185.65,19.75
1726072490,15185.38,19.74
1726072491,15185.15,19.74
1726072491,15184.82,19.74
1726072492,15184.58,19.75
1726072492,15184.37,19.75
1726072493,15184.26,19.74
1726072493,15183.98,19.74
1726072494,15183.73,19.74
1726072494,15183.62,19.75
1726072495,15183.5,19.75
1726072495,15183.3,19.75
1726072496,15183.12,19.75
1726072496,15182.87,19.75
1726072497,15182.68,19.75
1726072497,15182.37,19.76
1726072498,15182.21,19.76
1726072498,15181.96,19.77
1726072499,15181.72,19.77
1726072499,15181.53,19.77
1726072500,15181.42,19.77
1726072501,15181.21,19.77
1726072501,15181.09,19.76
1726072502,15180.84,19.75
1726072502,15180.67,1399.26
1726072503,15180.46,1238.87
1726072503,15179.9,1279.29
1726072504,15179.38,1316.37
1726072504,15178.82,1401.37
1726072505,15178.34,1480.85
1726072505,15177.93,1480.0
1726072506,14078.03,1343.67
1726072506,5814.34,650.51
1726072507,2523.39,648.16
1726072507,692.29,647.27
1726072508,48.66,646.67
1726072508,12.46,646.99
1726072509,1.91,647.99
1726072509,-2.02,649.33
1726072510,-3.98,650.97
1726072510,-4.7,653.2
1726072511,-5.16,655.08
1726072511,-5.42,676.21
1726072512,-5.56,1257.69
1726072512,-5.61,1546.43
1726072513,-5.52,1435.0
1726072513,-5.29,1431.82
1726072514,-5.11,1430.1
1726072514,-4.78,1428.61
1726072515,-4.51,1427.26
1726072515,-4.29,1425.98
1726072516,-4.06,1424.54
1726072516,-3.88,1423.42
1726072517,-3.66,1422.35
1726072517,-3.51,1421.31
1726072518,-3.32,1420.3
1726072518,-3.19,1419.34
1726072519,-3.0,1418.39
1726072519,-2.88,1417.47
1726072520,-2.73,1416.57
1726072520,-2.56,1415.69
1726072521,-2.46,1414.84
1726072521,-2.35,1413.85
1726072522,-2.23,1413.03
1726072522,-2.17,1412.24
1726072523,-2.01,1411.43
1726072523,-1.9,1411.43
1726072524,-1.9,1410.6
1726072524,-1.8,1409.75
1726072525,-1.73,1408.89
1726072525,-1.66,1408.02
1726072526,-1.62,1407.14
1726072526,-1.58,1406.26
1726072527,-1.45,1405.38
1726072527,-1.4,1404.3
1726072528,-1.3,1403.4
1726072528,-1.34,1402.5
1726072529,-1.33,1401.59
1726072529,-1.28,1400.69
1726072530,-1.21,1399.79
1726072530,-1.12,1398.89
1726072531,-0.99,1398.0
1726072531,-1.04,1397.1
1726072532,-0.98,1396.22
1726072532,-1.02,1395.34
1726072533,-0.94,1394.28
1726072533,-0.93,1393.41
1726072534,-0.87,1392.54
1726072534,-0.81,1391.69
1726072535,-0.74,1390.83
1726072535,-0.75,1389.98
1726072536,-0.72,1389.13
1726072536,-0.72,228.66
1726072537,-0.64,687.99
1726072537,-0.53,686.96
1726072538,-0.29,686.4
1726072538,-0.15,685.83
1726072539,-0.0,685.64
1726072539,0.04,685.53
1726072540,0.1,685.4
1726072540,0.17,685.04
1726072541,0.21,684.52
1726072541,0.27,683.88
1726072542,0.24,683.13
1726072542,0.22,682.32
1726072543,0.21,681.48
1726072543,0.21,313.23
1726072544,0.24,9.91
1726072544,0.26,11.67
1726072545,0.23,13.14
1726072545,0.27,14.32
1726072546,0.24,15.27
1726072546,0.27,16.0
1726072547,0.26,16.56
1726072547,0.27,17.01
1726072548,0.3,17.36
1726072548,0.35,17.64
1726072549,0.32,17.87
1726072549,0.29,18.09
1726072550,0.28,18.24
1726072550,0.31,18.37
1726072551,0.35,18.49
1726072551,0.42,18.59
1726072552,0.39,18.68
1726072552,0.37,18.75
1726072553,0.38,18.82
1726072553,0.44,18.89
1726072554,0.51,18.95
1726072554,0.5,19.0
1726072555,0.51,19.07
1726072555,0.46,19.12
1726072556,0.48,19.17
1726072556,0.48,19.22
1726072557,0.55,19.26
1726072557,0.61,19.3
1726072558,0.62,19.34
1726072558,0.7,19.37
1726072559,0.68,19.41
1726072559,0.66,19.44
1726072560,0.67,19.47
1726072560,0.69,19.47
1726072561,0.69,19.51
1726072561,0.68,19.53
1726072562,0.75,19.55
1726072562,0.74,19.57
1726072563,0.77,19.6
1726072563,0.84,19.63
1726072564,0.89,19.65
1726072564,0.9,19.67
1726072565,0.92,19.69
1726072566,1.0,19.7
1726072566,1.0,19.72
1726072567,1.06,19.73
1726072625,3.23,19.94
1726072625,3.27,19.94
1726072626,3.27,19.94
1726072626,3.33,19.94
1726072627,3.33,19.93
1726072627,3.29,19.93
1726072628,3.35,19.93
1726072628,3.41,19.93
1726072629,3.35,19.93
1726072629,3.31,19.93
1726072630,3.36,19.93
1726072630,3.39,19.93
1726072631,3.43,19.93
1726072631,3.47,19.93
1726072632,3.52,19.93
1726072632,3.53,19.93
